Query the USDA NWCC Air and Water Database REST API • awdb
…
Get Forecasts

Get streamflow forecasts for the Cascades in west central Oregon. This returns a list column as it does with elements.

forecasts <- get_forecasts(cascades, elements = "SRVO")

forecasts[c(
  "station_triplet",
  "element_code",
  "publication_date",
  "forecast_period",
  "forecast_values"
)]
#> # A tibble: 63 × 5
#>    station_triplet element_code publication_date forecast_period forecast_values
#>    <chr>           <chr>        <chr>            <chr>           <list>         
#>  1 14050000:OR:US… SRVO         2025-01-01 00:00 02-01:07-31     <tibble>       
#>  2 14050000:OR:US… SRVO         2025-02-01 00:00 02-01:07-31     <tibble>       
#>  3 14050000:OR:US… SRVO         2025-01-01 00:00 02-01:09-30     <tibble>       
#>  4 14050000:OR:US… SRVO         2025-02-01 00:00 02-01:09-30     <tibble>       
#>  5 14050000:OR:US… SRVO         2025-01-01 00:00 04-01:07-31     <tibble>       
#>  6 14050000:OR:US… SRVO         2025-02-01 00:00 04-01:07-31     <tibble>       
#>  7 14050000:OR:US… SRVO         2025-01-01 00:00 04-01:09-30     <tibble>       
#>  8 14050000:OR:US… SRVO         2025-02-01 00:00 04-01:09-30     <tibble>       
#>  9 14053500:OR:US… SRVO         2025-01-01 00:00 02-01:07-31     <tibble>       
#> 10 14053500:OR:US… SRVO         2025-02-01 00:00 02-01:07-31     <tibble>       
#> # ℹ 53 more rows
…
Get References

A somewhat unique endpoint for this REST API is called “References.” If you have ever worked with government employees or the military, you maybe are aware that they prefer an extremely condensed form of speech jammed full of acronyms and other codes. The references endpoint helps clarify their cryptic language with data dictionaries that explain what each code used in the database actually means. It also in the process provides an exhaustive list of available options. All of this, you can access with get_references(). For instance, if you want a table showing all possible station elements in the AWDB, it is as simple as this.

get_references("elements")
#> # A tibble: 115 × 9
#>    code  name     physical_element_name function_code data_precision description
#>    <chr> <chr>    <chr>                 <chr>                  <int> <chr>      
#>  1 TAVG  AIR TEM… air temperature       V                          1 Average Ai…
#>  2 TMAX  AIR TEM… air temperature       X                          1 Maximum Ai…
#>  3 TMIN  AIR TEM… air temperature       N                          1 Minimum Ai…
#>  4 TOBS  AIR TEM… air temperature       C                          1 Instantane…
#>  5 PRES  BAROMET… barometric pressure   C                          2 Barometric…
#>  6 BATT  BATTERY  battery               C                          2 Battery Vo…
#>  7 BATV  BATTERY… battery               V                          2 <NA>       
#>  8 BATX  BATTERY… battery               X                          2 Maximum Ba…
#>  9 BATN  BATTERY… battery               N                          2 Minimum Ba…
#> 10 ETIB  BATTERY… battery-eti precip g… C                          2 <NA>       
#> # ℹ 105 more rows
#> # ℹ 3 more variables: stored_unit_code <chr>, english_unit_code <chr>,
#> #   metric_unit_code <chr>
…
