Get Station Forecasts — get_forecasts • awdb
…
"SMS:*" - return soil moisture values for all measured depths.

Forecast Elements

Almost all forecasts are reported in SRVO, the adjusted streamflow set
which accounts for upstream operations such as reservoir operations and
diversions. JDAY, RESC, and REST are mostly there to maintain
historical forecasts made at Lake Tahoe (the birthplace of the snow
survey). In general, it's recommended to use SRVO.

    Examples

# get streamflow forecasts
get_forecasts(cascades, elements = "SRVO")
#> # A tibble: 117 × 10
#>    station_triplet  forecast_point_name    element_code forecast_period
#>    <chr>            <chr>                  <chr>        <chr>          
#>  1 14050000:OR:USGS Deschutes R bl Snow Ck SRVO         02-01:07-31    
#>  2 14050000:OR:USGS Deschutes R bl Snow Ck SRVO         02-01:07-31    
#>  3 14050000:OR:USGS Deschutes R bl Snow Ck SRVO         02-01:09-30    
#>  4 14050000:OR:USGS Deschutes R bl Snow Ck SRVO         02-01:09-30    
#>  5 14050000:OR:USGS Deschutes R bl Snow Ck SRVO         03-01:07-31    
#>  6 14050000:OR:USGS Deschutes R bl Snow Ck SRVO         03-01:09-30    
#>  7 14050000:OR:USGS Deschutes R bl Snow Ck SRVO         04-01:07-31    
#>  8 14050000:OR:USGS Deschutes R bl Snow Ck SRVO         04-01:07-31    
#>  9 14050000:OR:USGS Deschutes R bl Snow Ck SRVO         04-01:07-31    
#> 10 14050000:OR:USGS Deschutes R bl Snow Ck SRVO         04-01:07-31    
#> # ℹ 107 more rows
#> # ℹ 6 more variables: forecast_status <chr>, issue_date <chr>,
#> #   period_normal <dbl>, publication_date <chr>, unit_code <chr>,
#> #   forecast_values <list>

# return as sf table
get_forecasts(cascades, elements = "SRVO", as_sf = TRUE)
#> Simple feature collection with 117 features and 10 fields
#> Geometry type: POINT
#> Dimension:     XY
#> Bounding box:  xmin: -122.8373 ymin: 43.5029 xmax: -121.5028 ymax: 44.2679
#> Geodetic CRS:  WGS 84
#> # A tibble: 117 × 11
#>    station_triplet  forecast_point_name    element_code forecast_period
#>    <chr>            <chr>                  <chr>        <chr>          
#>  1 14050000:OR:USGS Deschutes R bl Snow Ck SRVO         02-01:09-30    
#>  2 14050000:OR:USGS Deschutes R bl Snow Ck SRVO         04-01:07-31    
#>  3 14050000:OR:USGS Deschutes R bl Snow Ck SRVO         02-01:09-30    
#>  4 14050000:OR:USGS Deschutes R bl Snow Ck SRVO         03-01:07-31    
#>  5 14050000:OR:USGS Deschutes R bl Snow Ck SRVO         03-01:09-30    
#>  6 14050000:OR:USGS Deschutes R bl Snow Ck SRVO         04-01:09-30    
#>  7 14050000:OR:USGS Deschutes R bl Snow Ck SRVO         04-01:07-31    
#>  8 14050000:OR:USGS Deschutes R bl Snow Ck SRVO         04-01:07-31    
#>  9 14050000:OR:USGS Deschutes R bl Snow Ck SRVO         04-01:07-31    
#> 10 14050000:OR:USGS Deschutes R bl Snow Ck SRVO         02-01:07-31    
#> # ℹ 107 more rows
#> # ℹ 7 more variables: forecast_status <chr>, issue_date <chr>,
#> #   period_normal <dbl>, publication_date <chr>, unit_code <chr>,
#> #   forecast_values <list>, geometry <POINT [°]>
…
